{
  "type": "object",
  "$schema": "http://json-schema.org/draft-04/schema",
  "title": "DhisOrderableConfig",
  "description": "A single configDto",
  "properties": {
    "value": {
      "type": "string",
      "title": "value"
    },
    "orderableId": {
      "type": "UUID",
      "title": "orderableId"
    }
  },
  "required": [
    "value",
    "orderableId"
  ]
}
