{
  "type": "object",
  "$schema": "http://json-schema.org/draft-04/schema",
  "title": "FacilityReportingRate",
  "description": "A single facility reporting rate",
  "properties": {
    "rnrId": {
      "type": "string",
      "title": "rnrId"
    },
    "id": {
      "type": "string",
      "title": "id"
    },
    "name": {
      "type": "string",
      "title": "name"
    },
    "reported": {
      "type": "string",
      "title": "reported"
    }

  },
  "required": [
    "name"
  ]
}
