{
  "type": "object",
  "$schema": "http://json-schema.org/draft-04/schema",
  "title": "RequisitionDto",
  "description": "A single requisitionDto",
  "properties": {
    "id": {
      "type": "string",
      "title": "id"
    },
    "createdDate": {
      "type": "string",
      "title": "createdDate"
    },
    "modifiedDate": {
      "type": "string",
      "title": "modifiedDate"
    },
    "facility": {
      "type": "object",
      "$ref": "facilityDto.json",
      "title": "facility"
    },
    "program": {
      "type": "object",
      "$ref": "programDto.json",
      "title": "program"
    },
    "supplyingFacility": {
      "type": [
        "string",
        "null"
      ],
      "title": "supplyingFacility"
    },
    "status": {
      "type": "string",
      "title": "status"
    },
    "emergency": {
      "type": "boolean",
      "title": "emergency"
    },
    "reportOnly": {
      "type": "boolean",
      "title": "reportOnly"
    },
    "supervisoryNode": {
      "type": "string",
      "title": "supervisoryNode"
    },
    "processingPeriod": {
      "type": "object",
      "$ref": "processingPeriodDto.json",
      "title": "processingPeriod"
    },
    "draftStatusMessage": {
      "type": "string",
      "title": "draftStatusMessage"
    },
    "requisitionLineItems": {
      "type": "array",
      "title": "requisitionLineItems",
      "items": {
        "type": "object",
        "$ref": "requisitionLineItemDto.json"
      },
      "uniqueItems": false
    },
    "datePhysicalStockCountCompleted": {
      "type": "string",
      "title": "datePhysicalStockCountCompleted"
    },
    "stockAdjustmentReasons": {
      "type": "array",
      "title": "stockAdjustmentReasons",
      "items": {
        "type": "object",
        "$ref": "stockAdjustmentReason.json"
      },
      "uniqueItems": true
    },
    "availableNonFullSupplyProducts": {
      "type": "array",
      "title": "availableNonFullSupplyProducts",
      "items": {
        "type": "object",
        "$ref": "orderableDto.json"
      },
      "uniqueItems": true
    },
    "availableFullSupplyProducts": {
      "type": "array",
      "title": "availableFullSupplyProducts",
      "items": {
        "type": "object",
        "$ref": "orderableDto.json"
      },
      "uniqueItems": true
    },
    "statusHistory": {
      "type": "array",
      "title": "statusHistory",
      "items": {
        "type": "object",
        "$ref": "statusChangeDto.json"
      }
    },
    "extraData": {
      "type": "object",
      "title": "extraData"
    }
  },
  "required": [
    "id",
    "facility",
    "program",
    "processingPeriod",
    "status",
    "supervisoryNode"
  ]
}